R_Guide_notes - dplyr
…
filter()

filter() des lignes d’une table selon une condition passée en paramètre.

Seules les lignes pour lesquelles le test renvoie TRUE sont renvoyées2.

2 une ligne pour laquelle le test renvoie FALSE (faux) ou NA, d’est à dire non avable (valeur manquante) sera ignorée, donc pas renvoyée
3 variable month

Sélection des vols du mois de janvier3 :

filter(flights, month == 1)

# A tibble: 27,004 × 19
    year month   day dep_time sched_dep_time dep_delay arr_time sched_arr_time
   <int> <int> <int>    <int>          <int>     <dbl>    <int>          <int>
 1  2013     1     1      517            515         2      830            819
 2  2013     1     1      533            529         4      850            830
 3  2013     1     1      542            540         2      923            850
 4  2013     1     1      544            545        -1     1004           1022
 5  2013     1     1      554            600        -6      812            837
 6  2013     1     1      554            558        -4      740            728
 7  2013     1     1      555            600        -5      913            854
 8  2013     1     1      557            600        -3      709            723
 9  2013     1     1      557            600        -3      838            846
10  2013     1     1      558            600        -2      753            745
# ℹ 26,994 more rows
# ℹ 11 more variables: arr_delay <dbl>, carrier <chr>, flight <int>,
#   tailnum <chr>, origin <chr>, dest <chr>, air_time <dbl>, distance <dbl>,
#   hour <dbl>, minute <dbl>, time_hour <dttm>

Ou plus simplement avec un pipe :

flights |> 
  filter(month == 1)

# A tibble: 27,004 × 19
    year month   day dep_time sched_dep_time dep_delay arr_time sched_arr_time
   <int> <int> <int>    <int>          <int>     <dbl>    <int>          <int>
 1  2013     1     1      517            515         2      830            819
 2  2013     1     1      533            529         4      850            830
 3  2013     1     1      542            540         2      923            850
 4  2013     1     1      544            545        -1     1004           1022
 5  2013     1     1      554            600        -6      812            837
 6  2013     1     1      554            558        -4      740            728
 7  2013     1     1      555            600        -5      913            854
 8  2013     1     1      557            600        -3      709            723
 9  2013     1     1      557            600        -3      838            846
10  2013     1     1      558            600        -2      753            745
# ℹ 26,994 more rows
# ℹ 11 more variables: arr_delay <dbl>, carrier <chr>, flight <int>,
#   tailnum <chr>, origin <chr>, dest <chr>, air_time <dbl>, distance <dbl>,
#   hour <dbl>, minute <dbl>, time_hour <dttm>

Sélectionner les vols avec un retard au départ4 entre 10 et 15 minutes :

4 variable dep_delay

flights |> 
  filter(dep_delay >= 10 & dep_delay <= 15)

# A tibble: 14,919 × 19
    year month   day dep_time sched_dep_time dep_delay arr_time sched_arr_time
   <int> <int> <int>    <int>          <int>     <dbl>    <int>          <int>
 1  2013     1     1      611            600        11      945            931
 2  2013     1     1      623            610        13      920            915
 3  2013     1     1      743            730        13     1107           1100
 4  2013     1     1      743            730        13     1059           1056
 5  2013     1     1      851            840        11     1215           1206
 6  2013     1     1      912            900        12     1241           1220
 7  2013     1     1      914            900        14     1058           1043
 8  2013     1     1      920            905        15     1039           1025
 9  2013     1     1     1011           1001        10     1133           1128
10  2013     1     1     1112           1100        12     1440           1438
# ℹ 14,909 more rows
# ℹ 11 more variables: arr_delay <dbl>, carrier <chr>, flight <int>,
#   tailnum <chr>, origin <chr>, dest <chr>, air_time <dbl>, distance <dbl>,
#   hour <dbl>, minute <dbl>, time_hour <dttm>

Tester avec une fonction. Les vols avec la plus grande distance :

flights |> 
  filter(distance == max(distance))

# A tibble: 342 × 19
    year month   day dep_time sched_dep_time dep_delay arr_time sched_arr_time
   <int> <int> <int>    <int>          <int>     <dbl>    <int>          <int>
 1  2013     1     1      857            900        -3     1516           1530
 2  2013     1     2      909            900         9     1525           1530
 3  2013     1     3      914            900        14     1504           1530
 4  2013     1     4      900            900         0     1516           1530
 5  2013     1     5      858            900        -2     1519           1530
 6  2013     1     6     1019            900        79     1558           1530
 7  2013     1     7     1042            900       102     1620           1530
 8  2013     1     8      901            900         1     1504           1530
 9  2013     1     9      641            900      1301     1242           1530
10  2013     1    10      859            900        -1     1449           1530
# ℹ 332 more rows
# ℹ 11 more variables: arr_delay <dbl>, carrier <chr>, flight <int>,
#   tailnum <chr>, origin <chr>, dest <chr>, air_time <dbl>, distance <dbl>,
#   hour <dbl>, minute <dbl>, time_hour <dttm>

Évaluation contextuelle

dplyr procède à une évaluation contextuelle des expressions qui lui sont passées. Ainsi, on peut indiquer directement le nom d’une variable et dplyr l’interprétera dans le contexte du tableau de données, c’est-à-dire regardera s’il existe une colonne portant ce nom dans le tableau.

Dans l’expression flights |> filter(month == 1), month est interprété comme la colonne month du tableau flights, à savoir flights$month.

Il est également possible d’indiquer des objets extérieurs au tableau :

m <- 2
flights |> 
  filter(month == m)

# A tibble: 24,951 × 19
    year month   day dep_time sched_dep_time dep_delay arr_time sched_arr_time
   <int> <int> <int>    <int>          <int>     <dbl>    <int>          <int>
 1  2013     2     1      456            500        -4      652            648
 2  2013     2     1      520            525        -5      816            820
 3  2013     2     1      527            530        -3      837            829
 4  2013     2     1      532            540        -8     1007           1017
 5  2013     2     1      540            540         0      859            850
 6  2013     2     1      552            600        -8      714            715
 7  2013     2     1      552            600        -8      919            910
 8  2013     2     1      552            600        -8      655            709
 9  2013     2     1      553            600        -7      833            815
10  2013     2     1      553            600        -7      821            825
# ℹ 24,941 more rows
# ℹ 11 more variables: arr_delay <dbl>, carrier <chr>, flight <int>,
#   tailnum <chr>, origin <chr>, dest <chr>, air_time <dbl>, distance <dbl>,
#   hour <dbl>, minute <dbl>, time_hour <dttm>
…
arrange()

dplyr::arrange() réordonne les lignes d’un tableau selon une ou plusieurs colonnes.

Trier flighs selon le retard au départ5 en ordre croissant :

5 colonne (variable) dep_delay

flights |> 
  arrange(dep_delay)

# A tibble: 336,776 × 19
    year month   day dep_time sched_dep_time dep_delay arr_time sched_arr_time
   <int> <int> <int>    <int>          <int>     <dbl>    <int>          <int>
 1  2013    12     7     2040           2123       -43       40           2352
 2  2013     2     3     2022           2055       -33     2240           2338
 3  2013    11    10     1408           1440       -32     1549           1559
 4  2013     1    11     1900           1930       -30     2233           2243
 5  2013     1    29     1703           1730       -27     1947           1957
 6  2013     8     9      729            755       -26     1002            955
 7  2013    10    23     1907           1932       -25     2143           2143
 8  2013     3    30     2030           2055       -25     2213           2250
 9  2013     3     2     1431           1455       -24     1601           1631
10  2013     5     5      934            958       -24     1225           1309
# ℹ 336,766 more rows
# ℹ 11 more variables: arr_delay <dbl>, carrier <chr>, flight <int>,
#   tailnum <chr>, origin <chr>, dest <chr>, air_time <dbl>, distance <dbl>,
#   hour <dbl>, minute <dbl>, time_hour <dttm>

Trier selon plusieurs colonnes :

flights |> 
  arrange(month, dep_delay)

# A tibble: 336,776 × 19
    year month   day dep_time sched_dep_time dep_delay arr_time sched_arr_time
   <int> <int> <int>    <int>          <int>     <dbl>    <int>          <int>
 1  2013     1    11     1900           1930       -30     2233           2243
 2  2013     1    29     1703           1730       -27     1947           1957
 3  2013     1    12     1354           1416       -22     1606           1650
 4  2013     1    21     2137           2159       -22     2232           2316
 5  2013     1    20      704            725       -21     1025           1035
 6  2013     1    12     2050           2110       -20     2310           2355
 7  2013     1    12     2134           2154       -20        4             50
 8  2013     1    14     2050           2110       -20     2329           2355
 9  2013     1     4     2140           2159       -19     2241           2316
10  2013     1    11     1947           2005       -18     2209           2230
# ℹ 336,766 more rows
# ℹ 11 more variables: arr_delay <dbl>, carrier <chr>, flight <int>,
#   tailnum <chr>, origin <chr>, dest <chr>, air_time <dbl>, distance <dbl>,
#   hour <dbl>, minute <dbl>, time_hour <dttm>

Et même :

flights |> 
  arrange(month, desc(dep_delay))

# A tibble: 336,776 × 19
    year month   day dep_time sched_dep_time dep_delay arr_time sched_arr_time
   <int> <int> <int>    <int>          <int>     <dbl>    <int>          <int>
 1  2013     1     9      641            900      1301     1242           1530
 2  2013     1    10     1121           1635      1126     1239           1810
 3  2013     1     1      848           1835       853     1001           1950
 4  2013     1    13     1809            810       599     2054           1042
 5  2013     1    16     1622            800       502     1911           1054
 6  2013     1    23     1551            753       478     1812           1006
 7  2013     1    10     1525            900       385     1713           1039
 8  2013     1     1     2343           1724       379      314           1938
 9  2013     1     2     2131           1512       379     2340           1741
10  2013     1     7     2021           1415       366     2332           1724
# ℹ 336,766 more rows
# ℹ 11 more variables: arr_delay <dbl>, carrier <chr>, flight <int>,
#   tailnum <chr>, origin <chr>, dest <chr>, air_time <dbl>, distance <dbl>,
#   hour <dbl>, minute <dbl>, time_hour <dttm>
…
