R_Guide_notes - dplyr
…
1.1 filter()

filter() des lignes d’une table selon une condition passée en paramètre.

Seules les lignes pour lesquelles le test renvoie TRUE sont renvoyées2.

2 une ligne pour laquelle le test renvoie FALSE (faux) ou NA, d’est à dire non avable (valeur manquante) sera ignorée, donc pas renvoyée
3 variable month

Sélection des vols du mois de janvier3 :

filter(flights, month == 1)

# A tibble: 27,004 × 19
    year month   day dep_time sched_dep_time dep_delay arr_time sched_arr_time
   <int> <int> <int>    <int>          <int>     <dbl>    <int>          <int>
 1  2013     1     1      517            515         2      830            819
 2  2013     1     1      533            529         4      850            830
 3  2013     1     1      542            540         2      923            850
 4  2013     1     1      544            545        -1     1004           1022
 5  2013     1     1      554            600        -6      812            837
 6  2013     1     1      554            558        -4      740            728
 7  2013     1     1      555            600        -5      913            854
 8  2013     1     1      557            600        -3      709            723
 9  2013     1     1      557            600        -3      838            846
10  2013     1     1      558            600        -2      753            745
# ℹ 26,994 more rows
# ℹ 11 more variables: arr_delay <dbl>, carrier <chr>, flight <int>,
#   tailnum <chr>, origin <chr>, dest <chr>, air_time <dbl>, distance <dbl>,
#   hour <dbl>, minute <dbl>, time_hour <dttm>

Ou plus simplement avec un pipe :

flights |> 
  filter(month == 1)

# A tibble: 27,004 × 19
    year month   day dep_time sched_dep_time dep_delay arr_time sched_arr_time
   <int> <int> <int>    <int>          <int>     <dbl>    <int>          <int>
 1  2013     1     1      517            515         2      830            819
 2  2013     1     1      533            529         4      850            830
 3  2013     1     1      542            540         2      923            850
 4  2013     1     1      544            545        -1     1004           1022
 5  2013     1     1      554            600        -6      812            837
 6  2013     1     1      554            558        -4      740            728
 7  2013     1     1      555            600        -5      913            854
 8  2013     1     1      557            600        -3      709            723
 9  2013     1     1      557            600        -3      838            846
10  2013     1     1      558            600        -2      753            745
# ℹ 26,994 more rows
# ℹ 11 more variables: arr_delay <dbl>, carrier <chr>, flight <int>,
#   tailnum <chr>, origin <chr>, dest <chr>, air_time <dbl>, distance <dbl>,
#   hour <dbl>, minute <dbl>, time_hour <dttm>

Sélectionner les vols avec un retard au départ4 entre 10 et 15 minutes :

4 variable dep_delay

flights |> 
  filter(dep_delay >= 10 & dep_delay <= 15)

# A tibble: 14,919 × 19
    year month   day dep_time sched_dep_time dep_delay arr_time sched_arr_time
   <int> <int> <int>    <int>          <int>     <dbl>    <int>          <int>
 1  2013     1     1      611            600        11      945            931
 2  2013     1     1      623            610        13      920            915
 3  2013     1     1      743            730        13     1107           1100
 4  2013     1     1      743            730        13     1059           1056
 5  2013     1     1      851            840        11     1215           1206
 6  2013     1     1      912            900        12     1241           1220
 7  2013     1     1      914            900        14     1058           1043
 8  2013     1     1      920            905        15     1039           1025
 9  2013     1     1     1011           1001        10     1133           1128
10  2013     1     1     1112           1100        12     1440           1438
# ℹ 14,909 more rows
# ℹ 11 more variables: arr_delay <dbl>, carrier <chr>, flight <int>,
#   tailnum <chr>, origin <chr>, dest <chr>, air_time <dbl>, distance <dbl>,
#   hour <dbl>, minute <dbl>, time_hour <dttm>

Tester avec une fonction. Les vols avec la plus grande distance :

flights |> 
  filter(distance == max(distance))

# A tibble: 342 × 19
    year month   day dep_time sched_dep_time dep_delay arr_time sched_arr_time
   <int> <int> <int>    <int>          <int>     <dbl>    <int>          <int>
 1  2013     1     1      857            900        -3     1516           1530
 2  2013     1     2      909            900         9     1525           1530
 3  2013     1     3      914            900        14     1504           1530
 4  2013     1     4      900            900         0     1516           1530
 5  2013     1     5      858            900        -2     1519           1530
 6  2013     1     6     1019            900        79     1558           1530
 7  2013     1     7     1042            900       102     1620           1530
 8  2013     1     8      901            900         1     1504           1530
 9  2013     1     9      641            900      1301     1242           1530
10  2013     1    10      859            900        -1     1449           1530
# ℹ 332 more rows
# ℹ 11 more variables: arr_delay <dbl>, carrier <chr>, flight <int>,
#   tailnum <chr>, origin <chr>, dest <chr>, air_time <dbl>, distance <dbl>,
#   hour <dbl>, minute <dbl>, time_hour <dttm>

Évaluation contextuelle

dplyr procède à une évaluation contextuelle des expressions qui lui sont passées. Ainsi, on peut indiquer directement le nom d’une variable et dplyr l’interprétera dans le contexte du tableau de données, c’est-à-dire regardera s’il existe une colonne portant ce nom dans le tableau.

Dans l’expression flights |> filter(month == 1), month est interprété comme la colonne month du tableau flights, à savoir flights$month.

Il est également possible d’indiquer des objets extérieurs au tableau :

m <- 2
flights |> 
  filter(month == m)

# A tibble: 24,951 × 19
    year month   day dep_time sched_dep_time dep_delay arr_time sched_arr_time
   <int> <int> <int>    <int>          <int>     <dbl>    <int>          <int>
 1  2013     2     1      456            500        -4      652            648
 2  2013     2     1      520            525        -5      816            820
 3  2013     2     1      527            530        -3      837            829
 4  2013     2     1      532            540        -8     1007           1017
 5  2013     2     1      540            540         0      859            850
 6  2013     2     1      552            600        -8      714            715
 7  2013     2     1      552            600        -8      919            910
 8  2013     2     1      552            600        -8      655            709
 9  2013     2     1      553            600        -7      833            815
10  2013     2     1      553            600        -7      821            825
# ℹ 24,941 more rows
# ℹ 11 more variables: arr_delay <dbl>, carrier <chr>, flight <int>,
#   tailnum <chr>, origin <chr>, dest <chr>, air_time <dbl>, distance <dbl>,
#   hour <dbl>, minute <dbl>, time_hour <dttm>
…
1.3 arrange()

dplyr::arrange() réordonne les lignes d’un tableau selon une ou plusieurs colonnes.

Trier flighs selon le retard au départ5 en ordre croissant :

5 colonne (variable) dep_delay

flights |> 
  arrange(dep_delay)

# A tibble: 336,776 × 19
    year month   day dep_time sched_dep_time dep_delay arr_time sched_arr_time
   <int> <int> <int>    <int>          <int>     <dbl>    <int>          <int>
 1  2013    12     7     2040           2123       -43       40           2352
 2  2013     2     3     2022           2055       -33     2240           2338
 3  2013    11    10     1408           1440       -32     1549           1559
 4  2013     1    11     1900           1930       -30     2233           2243
 5  2013     1    29     1703           1730       -27     1947           1957
 6  2013     8     9      729            755       -26     1002            955
 7  2013    10    23     1907           1932       -25     2143           2143
 8  2013     3    30     2030           2055       -25     2213           2250
 9  2013     3     2     1431           1455       -24     1601           1631
10  2013     5     5      934            958       -24     1225           1309
# ℹ 336,766 more rows
# ℹ 11 more variables: arr_delay <dbl>, carrier <chr>, flight <int>,
#   tailnum <chr>, origin <chr>, dest <chr>, air_time <dbl>, distance <dbl>,
#   hour <dbl>, minute <dbl>, time_hour <dttm>

Trier selon plusieurs colonnes :

flights |> 
  arrange(month, dep_delay)

# A tibble: 336,776 × 19
    year month   day dep_time sched_dep_time dep_delay arr_time sched_arr_time
   <int> <int> <int>    <int>          <int>     <dbl>    <int>          <int>
 1  2013     1    11     1900           1930       -30     2233           2243
 2  2013     1    29     1703           1730       -27     1947           1957
 3  2013     1    12     1354           1416       -22     1606           1650
 4  2013     1    21     2137           2159       -22     2232           2316
 5  2013     1    20      704            725       -21     1025           1035
 6  2013     1    12     2050           2110       -20     2310           2355
 7  2013     1    12     2134           2154       -20        4             50
 8  2013     1    14     2050           2110       -20     2329           2355
 9  2013     1     4     2140           2159       -19     2241           2316
10  2013     1    11     1947           2005       -18     2209           2230
# ℹ 336,766 more rows
# ℹ 11 more variables: arr_delay <dbl>, carrier <chr>, flight <int>,
#   tailnum <chr>, origin <chr>, dest <chr>, air_time <dbl>, distance <dbl>,
#   hour <dbl>, minute <dbl>, time_hour <dttm>

Et même :

flights |> 
  arrange(month, desc(dep_delay))

# A tibble: 336,776 × 19
    year month   day dep_time sched_dep_time dep_delay arr_time sched_arr_time
   <int> <int> <int>    <int>          <int>     <dbl>    <int>          <int>
 1  2013     1     9      641            900      1301     1242           1530
 2  2013     1    10     1121           1635      1126     1239           1810
 3  2013     1     1      848           1835       853     1001           1950
 4  2013     1    13     1809            810       599     2054           1042
 5  2013     1    16     1622            800       502     1911           1054
 6  2013     1    23     1551            753       478     1812           1006
 7  2013     1    10     1525            900       385     1713           1039
 8  2013     1     1     2343           1724       379      314           1938
 9  2013     1     2     2131           1512       379     2340           1741
10  2013     1     7     2021           1415       366     2332           1724
# ℹ 336,766 more rows
# ℹ 11 more variables: arr_delay <dbl>, carrier <chr>, flight <int>,
#   tailnum <chr>, origin <chr>, dest <chr>, air_time <dbl>, distance <dbl>,
#   hour <dbl>, minute <dbl>, time_hour <dttm>
…
ou pour trouver 2.3\,\% des lignes :

flights |> 
  slice_sample(prop = 0.023)

# A tibble: 7,745 × 19
    year month   day dep_time sched_dep_time dep_delay arr_time sched_arr_time
   <int> <int> <int>    <int>          <int>     <dbl>    <int>          <int>
 1  2013     7    29     1452           1450         2     1631           1634
 2  2013    11    11      849            850        -1     1116           1132
 3  2013     9     3      655            659        -4      913           1000
 4  2013     3    14      754            800        -6     1121           1116
 5  2013    10     8     1019           1029       -10     1147           1214
 6  2013     5    22      852            900        -8     1121           1126
 7  2013     2    27     1449           1355        54     1719           1634
 8  2013     2    19     1609           1600         9     1959           1930
 9  2013    11     6     1755           1800        -5     1913           1919
10  2013     5    10      741            744        -3     1025           1045
# ℹ 7,735 more rows
# ℹ 11 more variables: arr_delay <dbl>, carrier <chr>, flight <int>,
#   tailnum <chr>, origin <chr>, dest <chr>, air_time <dbl>, distance <dbl>,
#   hour <dbl>, minute <dbl>, time_hour <dttm>
…
slice_sample() sert à choisir un extrait d’une table pour faire des essais. Si les extraits successifs ne sont pas les mêmes, les résultats des essais seront biaisés et, surtout, incohérents. En utilisant set.seed()7. En définissant une même semence avant chaque génération aléatoire, on aura toujours la même séquence aléatoire. Et sur touts les machines du monde.

7 à noter pour les anglophobes : seed veut dire semence

6 quoique j’y suis peut-être déjà !

1.5 distinct()

dplyr::distinct() renvoie un tableau sans lignes en double.

flights |> 
  select(day, month) |>
  distinct()

# A tibble: 365 × 2
     day month
   <int> <int>
 1     1     1
 2     2     1
 3     3     1
 4     4     1
 5     5     1
 6     6     1
 7     7     1
 8     8     1
 9     9     1
10    10     1
# ℹ 355 more rows

On peut lui spécifier une liste de variables : dans ce cas, pour toutes les observations ayant des valeurs identiques pour les variables en question, distinct() ne conservera que la première d’entre elles.

flights |> 
  distinct(month, day)

# A tibble: 365 × 2
   month   day
   <int> <int>
 1     1     1
 2     1     2
 3     1     3
 4     1     4
 5     1     5
 6     1     6
 7     1     7
 8     1     8
 9     1     9
10     1    10
# ℹ 355 more rows

L’option .keep_all renvoie toutes les colonnes du tableau :

flights |> 
  distinct(month, day, .keep_all = TRUE)

# A tibble: 365 × 19
    year month   day dep_time sched_dep_time dep_delay arr_time sched_arr_time
   <int> <int> <int>    <int>          <int>     <dbl>    <int>          <int>
 1  2013     1     1      517            515         2      830            819
 2  2013     1     2       42           2359        43      518            442
 3  2013     1     3       32           2359        33      504            442
 4  2013     1     4       25           2359        26      505            442
 5  2013     1     5       14           2359        15      503            445
 6  2013     1     6       16           2359        17      451            442
 7  2013     1     7       49           2359        50      531            444
 8  2013     1     8      454            500        -6      625            648
 9  2013     1     9        2           2359         3      432            444
10  2013     1    10        3           2359         4      426            437
# ℹ 355 more rows
# ℹ 11 more variables: arr_delay <dbl>, carrier <chr>, flight <int>,
#   tailnum <chr>, origin <chr>, dest <chr>, air_time <dbl>, distance <dbl>,
#   hour <dbl>, minute <dbl>, time_hour <dttm>

2 Opérations sur les colonnes

Source

2.1 select()

dplyr::select() permet de sélectionner des colonnes d’un tableau de données. Extraire les colonnes lat et lon du tableau airports :

airports |> 
  select(lat, lon)

# A tibble: 1,458 × 2
     lat    lon
   <dbl>  <dbl>
 1  41.1  -80.6
 2  32.5  -85.7
 3  42.0  -88.1
 4  41.4  -74.4
 5  31.1  -81.4
 6  36.4  -82.2
 7  41.5  -84.5
 8  42.9  -76.8
 9  39.8  -76.6
10  48.1 -123. 
# ℹ 1,448 more rows

Précéder le nom de la colonne d’un - élimine la colonne de la sélection :

airports |> 
  select(-lat, -lon)

# A tibble: 1,458 × 6
   faa   name                             alt    tz dst   tzone              
   <chr> <chr>                          <dbl> <dbl> <chr> <chr>              
 1 04G   Lansdowne Airport               1044    -5 A     America/New_York   
 2 06A   Moton Field Municipal Airport    264    -6 A     America/Chicago    
 3 06C   Schaumburg Regional              801    -6 A     America/Chicago    
 4 06N   Randall Airport                  523    -5 A     America/New_York   
 5 09J   Jekyll Island Airport             11    -5 A     America/New_York   
 6 0A9   Elizabethton Municipal Airport  1593    -5 A     America/New_York   
 7 0G6   Williams County Airport          730    -5 A     America/New_York   
 8 0G7   Finger Lakes Regional Airport    492    -5 A     America/New_York   
 9 0P2   Shoestring Aviation Airfield    1000    -5 U     America/New_York   
10 0S9   Jefferson County Intl            108    -8 A     America/Los_Angeles
# ℹ 1,448 more rows

dplyr::select() comprend une série de fonctions facilitant la sélection de multiples colonnes. Par exemple, dplyr::starts_with(), dplyr::contains() ou dplyr::matches() permettent d’exprimer des conditions sur les noms de variables :

flights |> 
  select(starts_with("dep_"))

# A tibble: 336,776 × 2
   dep_time dep_delay
      <int>     <dbl>
 1      517         2
 2      533         4
 3      542         2
 4      544        -1
 5      554        -6
 6      554        -4
 7      555        -5
 8      557        -3
 9      557        -3
10      558        -2
# ℹ 336,766 more rows

colonneA:colonneZ permet de sélectionner toutes les colonnes entre colonneA et colonneZ, ces deux colonnes incluses :

flights |> 
  select(year:day)

# A tibble: 336,776 × 3
    year month   day
   <int> <int> <int>
 1  2013     1     1
 2  2013     1     1
 3  2013     1     1
 4  2013     1     1
 5  2013     1     1
 6  2013     1     1
 7  2013     1     1
 8  2013     1     1
 9  2013     1     1
10  2013     1     1
# ℹ 336,766 more rows

dplyr::all_of() et dplyr::any_of() permettent de fournir une liste de variables à extraire sous forme de vecteur textuel. Alors que dplyr::all_of() renverra une erreur si une variable n’est pas trouvée dans le tableau de départ, dplyr::any_of() sera moins stricte.

flights |> 
  select(all_of(c("year", "month", "day")))

# A tibble: 336,776 × 3
    year month   day
   <int> <int> <int>
 1  2013     1     1
 2  2013     1     1
 3  2013     1     1
 4  2013     1     1
 5  2013     1     1
 6  2013     1     1
 7  2013     1     1
 8  2013     1     1
 9  2013     1     1
10  2013     1     1
# ℹ 336,766 more rows

dplyr::where() permets de sélectionner des variables à partir d’une fonction qui renvoie une valeur logique. Par exemple, pour sélectionner seulement les variables textuelles :

flights |> 
  select(where(is.character))

# A tibble: 336,776 × 4
   carrier tailnum origin dest 
   <chr>   <chr>   <chr>  <chr>
 1 UA      N14228  EWR    IAH  
 2 UA      N24211  LGA    IAH  
 3 AA      N619AA  JFK    MIA  
 4 B6      N804JB  JFK    BQN  
 5 DL      N668DN  LGA    ATL  
 6 UA      N39463  EWR    ORD  
 7 B6      N516JB  EWR    FLL  
 8 EV      N829AS  LGA    IAD  
 9 B6      N593JB  JFK    MCO  
10 AA      N3ALAA  LGA    ORD  
# ℹ 336,766 more rows
…
